Probabilistic Outlier Identification for RNA Sequencing Generalized Linear Models • ppcseq
…
Before install, for linux systems, in order to exploit multi-threading, from R write:

fileConn<-file("~/.R/Makevars")
writeLines(c( "CXX14FLAGS += -O3","CXX14FLAGS += -DSTAN_THREADS", "CXX14FLAGS += -pthread"), fileConn)
close(fileConn)

Then, install with

devtools::install_github("stemangiola/ppcseq")

You can get the test dataset with

ppcseq::counts 

## # A tibble: 394,821 x 9
##    sample  symbol   logCPM    LR   PValue        FDR value       W Label      
##    <chr>   <chr>     <dbl> <dbl>    <dbl>      <dbl> <int>   <dbl> <chr>      
##  1 10922PP SLC16A12   1.39  41.1 1.46e-10 0.00000274   160 -0.129  High       
##  2 10935PP SLC16A12   1.39  41.1 1.46e-10 0.00000274   150 -0.127  High       
##  3 10973PP SLC16A12   1.39  41.1 1.46e-10 0.00000274   146 -0.426  High       
##  4 10976PP SLC16A12   1.39  41.1 1.46e-10 0.00000274   347 -0.0164 High       
##  5 10985PP SLC16A12   1.39  41.1 1.46e-10 0.00000274   175 -0.135  High       
##  6 11026PP SLC16A12   1.39  41.1 1.46e-10 0.00000274   244  0.125  High       
##  7 11045PP SLC16A12   1.39  41.1 1.46e-10 0.00000274   399 -0.0892 High       
##  8 11082PP SLC16A12   1.39  41.1 1.46e-10 0.00000274   100  0.261  Neoadjuvant
##  9 11086PP SLC16A12   1.39  41.1 1.46e-10 0.00000274    37 -0.132  Neoadjuvant
## 10 11103PP SLC16A12   1.39  41.1 1.46e-10 0.00000274    73  0.146  Neoadjuvant
## # … with 394,811 more rows
…
