…
The new posterior predictive check has been added to the original data
frame

``` r
counts.ppc %>% 
    distinct(symbol, FDR, `ppc samples failed`, plot)
```

    ## Warning: distinct() does not fully support columns of type `list`.
    ## List elements are compared by reference, see ?distinct for details.
    ## This affects the following columns:
    ## - `plot`

    ## # A tibble: 18,801 x 4
    ##    symbol          FDR `ppc samples failed` plot  
    ##    <chr>         <dbl>                <int> <list>
    ##  1 SLC16A12 0.00000274                    1 <gg>  
    ##  2 CYP1A1   0.000175                      0 <gg>  
    ##  3 ART3     0.000217                      1 <gg>  
    ##  4 DIO2     0.000483                      0 <gg>  
    ##  5 OR51E2   0.000785                      0 <gg>  
    ##  6 MUC16    0.00657                       0 <gg>  
    ##  7 CCNA1    0.00734                       1 <gg>  
    ##  8 LYZ      0.00734                       1 <gg>  
    ##  9 PPM1H    0.00734                       0 <gg>  
    ## 10 SUSD5    0.00734                       0 <gg>  
    ## # … with 18,791 more rows
…
